<svg width="38" height="38" viewBox="0 0 38 38" version="1.1" xmlns="http://www.w3.org/2000/svg" xmlns:xlink="http://www.w3.org/1999/xlink">
<title>ico-tabs-home</title>
<desc>Created using Figma</desc>
<g id="Canvas" transform="translate(582 -4988)">
<clipPath id="clip-0" clip-rule="evenodd">
<path d="M -598 4405L -238 4405L -238 5045L -598 5045L -598 4405Z" fill="#FFFFFF"/>
</clipPath>
<g id="Riwayat Eviden" clip-path="url(#clip-0)">
<g id="Menu Bar">
<g id="Beranda">
<g id="Tidak Aktif">
<g id="np_home_1012343_A8ABB6">
<g id="Shape">
<use xlink:href="#path0_fill" transform="translate(-573 4996)" fill="#0052A8"/>
</g>
</g>
</g>
</g>
</g>
</g>
</g>
<defs>
<path id="path0_fill" d="M 14.1877 22L 16.9821 22C 17.2196 22 17.4466 21.9033 17.6143 21.7313C 17.782 21.5594 17.8763 21.3265 17.8763 21.0829L 17.8763 10.6424L 20.4069 10.6424C 20.6496 10.6424 20.8688 10.491 20.9579 10.2591C 21.0478 10.0271 20.991 9.76292 20.8138 9.59186L 11.1522 0.265318C 10.7855 -0.0884394 10.2143 -0.0884394 9.84847 0.265318L 0.1869 9.59003C 0.00963235 9.76019 -0.0480053 10.0253 0.0419419 10.2563C 0.131885 10.4883 0.350194 10.6405 0.59384 10.6396L 3.12196 10.6396L 3.12196 21.0829C 3.12196 21.3265 3.21627 21.5594 3.38393 21.7313C 3.5516 21.9033 3.77863 22 4.01615 22L 6.81052 22C 7.3659 22 7.81649 21.5379 7.81649 20.9683L 7.81649 15.122C 7.81649 14.7423 8.11689 14.4342 8.48713 14.4342L 12.511 14.4342C 12.8813 14.4342 13.1817 14.7423 13.1817 15.122L 13.1817 20.9683C 13.1817 21.5379 13.6322 22 14.1876 22L 14.1877 22Z"/>
</defs>
</svg>
